   5   8
  -9   17  -16  -50   19  -26   28    8 
  12   14  -45   -5   31  -23   11   41 
  45   -8  -23  -14   41  -46  -48    3 
  42   32  -29  -34  -32   45   -3  -24 
  21  -12   19  -38   17   49  -15   44 
