MAX: 1; 
QUANTITY: 1.

Name: rak; Result: 0.
Name: rrr; Result: 0.
Name: rrr; Result: 0.
Name: rrr; Result: 0.
Name: rrr; Result: 0.
Name: lolk; Result: 0.
Name: lol; Result: 0.
Name: uuu/uuu0; Result: 0.
Name: uuu/uuu.txt; Result: 0.
Name: uuu/uuu0.txt; Result: 0.
Name: uuu/; Result: 0.
Name: uuu0; Result: 0.
Name: uuu0.txt; Result: 0.
Name: lol; Result: 0.
Name: lol/lol0.txt; Result: 0.
Name: lol/lol0.txt; Result: 0.
Name: lol/lol0.txt; Result: 0.
Name: lol/lol0.txt; Result: 0.
Name: lol.txt; Result: 6.
Name: lol/lol.txt; Result: 6.
Name: lol/lol.txt; Result: 4.
